{
  "name": "parkly",
  "app_id": "b5a7b986",
  "gulpStartupTasks": [
	"sass",
	"templatecache",
	"ng_annotate",
	"useref",
	"watch"
  ],
  "watchPatterns": [
	"www/**/*",
	"!www/lib/**/*"
  ],
  "proxies": [
    {
      "path": "/api",
      "proxyUrl": "http://eimk.tk/parkly_api/public/api"
    }
  ],
  "browsers": [
    {
      "platform": "android",
      "browser": "crosswalk",
      "version": "12.41.296.5"
    }
  ]
}
